{
    "movies":  [
        {
            "id": 1,
            "title": "Star Wars",
            "year": "1977",
            "stars": 4
        },
        {
            "id": 2,
            "title": "The Empire Strikes Back",
            "year": "1980",
            "stars": 5
        }
    ]
}
